<svg width="193" height="72" viewBox="0 0 193 72" fill="none" xmlns="http://www.w3.org/2000/svg">
  <path d="M72 0H0V72H72V0Z" fill="#0076FF"/>
  <path d="M51.656 37.4666C50.4767 37.4666 49.4836 38.4597 49.4836 39.639C49.4836 40.8183 50.4147 41.7494 51.656 41.7494C52.8353 41.7494 53.7664 40.8183 53.7664 39.639C53.8284 38.4597 52.8353 37.4666 51.656 37.4666ZM51.656 44.108C49.1733 44.108 47.125 42.1218 47.125 39.639C47.125 37.1562 49.1733 35.17 51.656 35.17C54.1388 35.17 56.125 37.1562 56.125 39.639C56.1871 42.1218 54.1388 44.108 51.656 44.108Z" fill="#F6FAFF"/>
  <path d="M35.4797 55.7379H33.1211V47.669H35.4797V55.7379Z" fill="#F6FAFF"/>
  <path d="M38.8938 55.7379H36.5352V47.669H38.8938V55.7379Z" fill="#F6FAFF"/>
  <path d="M46.3244 20.2298L48.6209 17.9332L46.9451 16.2574L44.6485 18.5539L42.9727 20.2298L45.952 23.2091L43.6554 25.5056L45.3313 27.1815L49.3037 23.2091L46.3244 20.2298Z" fill="#F6FAFF"/>
  <path d="M20.1713 39.3749L21.5569 41.751H18.7837L20.1713 39.3749ZM20.1713 34.7151L14.7188 44.1418H25.6238L20.1713 34.7151Z" fill="#F6FAFF"/>
  <path d="M30.5347 18.8019L28.8589 17.126L26.0037 19.9812L23.1485 17.126L21.4727 18.8019L24.3278 21.6571L21.4727 24.5122L23.1485 26.1881L26.0037 23.3329L28.8589 26.1881L30.5347 24.5122L27.6796 21.6571L30.5347 18.8019Z" fill="#F6FAFF"/>
  <path d="M87.1069 32H92.4669C96.0269 32 98.6869 30.02 98.6869 25.58V24.08C98.6869 19.6 95.9269 17.66 92.4269 17.66H87.1069V32ZM92.2269 20.78C93.8469 20.78 94.9669 21.86 94.9669 24.4V25.22C94.9669 27.74 93.8669 28.82 92.2669 28.82H90.7669V20.78H92.2269ZM102.268 19.74C103.748 19.74 104.448 19.26 104.448 17.94C104.448 16.58 103.708 16.12 102.268 16.12C100.808 16.12 100.088 16.58 100.088 17.94C100.088 19.3 100.668 19.74 102.268 19.74ZM100.368 32H104.148V20.46C103.928 20.6 102.888 20.7 102.268 20.7C101.648 20.7 100.568 20.62 100.368 20.48V32ZM110.77 29.64C109.89 29.64 109.43 29.3 109.43 28.62C109.43 28.22 109.59 27.94 109.91 27.7C110.27 27.46 110.65 27.36 111.65 27.18C112.35 27.04 112.87 26.9 113.21 26.64V27.34C113.21 28.48 112.23 29.64 110.77 29.64ZM113.77 32H116.77V24.6C116.77 21.92 115.39 20.16 111.55 20.16C107.93 20.16 106.09 21.94 105.91 24.64H109.61C109.65 23.56 110.27 22.96 111.55 22.96C112.79 22.96 113.19 23.42 113.19 24.08C113.19 24.82 112.47 25.02 110.71 25.26C108.83 25.56 107.99 25.72 107.07 26.3C106.13 26.88 105.55 27.78 105.55 29.18C105.55 31.1 106.77 32.3 109.29 32.3C111.45 32.3 112.71 31.36 113.37 30.06L113.77 32ZM122.308 25.86C122.308 24.32 122.768 23.3 124.028 23.3C125.308 23.3 125.628 24.28 125.628 25.6V32H129.268V25.68C129.268 24.26 129.668 23.3 130.928 23.3C132.208 23.3 132.568 24.24 132.568 25.64V32H136.208V24.56C136.208 21.76 134.888 20.16 132.328 20.16C130.628 20.16 129.468 20.98 128.868 22.28C128.328 20.92 127.208 20.16 125.428 20.16C123.788 20.16 122.628 20.96 122.028 22.22L121.708 20.4H118.648V32H122.308V25.86ZM143.541 32.3C147.081 32.3 149.401 30.34 149.401 26.48V26.12C149.401 22.24 147.041 20.16 143.561 20.16C140.141 20.16 137.701 22.18 137.701 26.12V26.48C137.701 30.34 139.781 32.3 143.541 32.3ZM143.561 29.16C142.221 29.16 141.321 28.22 141.321 26.44V26.12C141.321 24.18 142.221 23.24 143.581 23.24C144.981 23.24 145.781 24.22 145.781 26.12V26.44C145.781 28.26 144.901 29.16 143.561 29.16ZM154.653 25.94C154.653 24.34 155.173 23.3 156.553 23.3C157.893 23.3 158.253 24.22 158.253 25.66V32H161.933V24.62C161.933 21.82 160.573 20.16 157.993 20.16C156.193 20.16 154.993 21.02 154.393 22.36L154.053 20.4H150.953V32H154.653V25.94ZM169.203 29.12C167.963 29.12 167.103 28.28 167.103 26.2V25.94C167.103 24.12 167.903 23.18 169.263 23.18C170.563 23.18 171.423 24.18 171.423 25.94V26.2C171.423 28.16 170.543 29.12 169.203 29.12ZM171.863 32H174.963V16.6H171.383V22.06C170.803 20.88 169.703 20.18 168.023 20.18C165.363 20.18 163.443 21.98 163.443 25.88V26.22C163.443 30.2 165.203 32.22 168.003 32.22C169.783 32.22 170.943 31.34 171.523 29.98L171.863 32ZM92.4469 57.3C95.8269 57.3 98.1469 55.74 98.2869 52.1V52H94.5069V52.04C94.3869 53.5 93.6669 54.16 92.4669 54.16C91.1469 54.16 90.3069 53.22 90.3069 51.44V51.12C90.3069 49.18 91.1469 48.24 92.4869 48.24C93.6869 48.24 94.3669 48.86 94.4869 50.28V50.36H98.2669V50.3C98.1269 46.76 95.8269 45.16 92.4669 45.16C89.0669 45.16 86.6069 47.18 86.6069 51.12V51.48C86.6069 55.34 88.7069 57.3 92.4469 57.3ZM103.384 57V41.6H99.7036V57H103.384ZM112.849 57H115.929V45.4H112.229V51.44C112.229 53 111.749 54.06 110.469 54.06C109.169 54.06 108.849 53.12 108.849 51.7V45.4H105.209V52.78C105.209 55.6 106.469 57.22 109.049 57.22C110.789 57.22 111.929 56.38 112.509 55.04L112.849 57ZM124.846 57.3C127.706 57.3 129.446 55.18 129.446 51.24V50.88C129.446 46.96 127.526 45.18 124.926 45.16C123.306 45.16 122.146 45.94 121.526 47.26V41.6H117.926V57H121.106L121.386 55.06C121.946 56.42 123.086 57.3 124.846 57.3ZM123.666 54.12C122.346 54.12 121.466 53.18 121.466 51.16V50.9C121.466 49.2 122.366 48.18 123.686 48.18C124.946 48.18 125.826 49.1 125.826 50.94V51.22C125.826 53.26 125.006 54.12 123.666 54.12Z" fill="#00244D"/>
</svg>
